#mc_event  CS(fb) Acceptance NumEvents (NumEvents are not used in the code, leave it)
################## mc16_13TeV PythiaEvtGen with ShowerWeight
364700 7.8050E+13 9.7536E-01 15994200 ## JZ0WithSW
364701 7.8050E+13 2.4447E-02 15982200 ## JZ1WithSW
364702 2.4330E+12 9.8699E-03 15988000 ## JZ2WithSW
364703 2.6450E+10 1.1663E-02 15928000 ## JZ3WithSW
364704 2.5461E+08 1.3369E-02 15944000 ## JZ4WithSW
364705 4.5529E+06 1.4529E-02 7991500  ## JZ5WithSW
364706 2.5754E+05 9.4734E-03 7992050  ## JZ6WithSW
364707 1.6215E+04 1.1099E-02 3994000  ## JZ7WithSW
364708 6.2506E+02 1.0156E-02 3983000  ## JZ8WithSW
364709 1.9639E+01 1.2057E-02 1998000  ## JZ9WithSW
364710 1.1962E+00 5.8940E-03 499000   ## JZ10WithSW
364711 4.2263E-02 2.6734E-03 497000   ## JZ11WithSW
364712 1.0367E-03 4.2898E-04 499000   ## JZ12WithSW
#####################
310768 1.9540E+02 1.0000E+00 20000
310769 2.1420E+00 1.0000E+00 20000
310770 5.5520E-04 1.0000E+00 20000
################## mc16_13TeV Pythia8EvtGen
361020 7.8420E+13 1.0240E+00 16000000 #JZ0W 0-20 GeV
361021 7.8420E+13 6.7198E-04 15998000 #JZ1W 20-60 GeV
361022 2.4334E+12 3.3432E-04 15989500 #JZ2W 60-160 GeV
361023 2.6454E+10 3.2012E-04 15879500 #JZ3W 160-400 GeV
361024 2.5464E+08 5.3156E-04 15925500 #JZ4W 400-800 GeV
361025 4.5536E+06 9.2440E-04 15993500 #JZ5W 800-1300 GeV
361026 2.5752E+05 9.4071E-04 17734000 #JZ6W 1300-1800 GeV
361027 1.6214E+04 3.9264E-04 15983000 #JZ7W 1800-2500 GeV
361028 6.2505E+02 1.0176E-02 15999000 #JZ8W 2500-3200 GeV
361029 1.9640E+01 1.2076E-02 13995500 #JZ9W 3200-3900 GeV
361030 1.1961E+00 5.9093E-03 13985000 #JZ10W 3900-4600 GeV
361031 4.2260E-02 2.6759E-03 15958000 #JZ11W 4600-5300 GeV
361032 1.0370E-03 4.2587E-04 15995600 #JZ12W 5300-7000 GeV
################# mc16_13TeV BlackMax Quantum Black Holes ########################
303468 1.7898E+04 1.0000E+00 20000 # 4
303469 2.3475E+03 1.0000E+00 20000 # 5
303470 8.4588E+02 1.0000E+00 20000 # 5.5
303471 2.9958E+02 1.0000E+00 20000 # 6
303472 1.0183E+02 1.0000E+00 20000 # 6.5
303473 3.3335E+01 1.0000E+00 20000 # 7
303474 1.0393E+01 1.0000E+00 20000 # 7.5
303475 2.9853E+00 1.0000E+00 20000 # 8
303476 7.7647E-01 1.0000E+00 15000 # 8.5
303477 1.8250E-01 1.0000E+00 5000 # 9
303478 3.6260E-02 1.0000E+00 5000 # 9.5
303479 6.0135E-03 1.0000E+00 20000 #10
################### mc16_13TeV Pythia8 ExcitedQ ################################
301295 1.7685E+07 1.0000E+00 40000 #500
301296 8.1795E+06 1.0000E+00 40000 #600
301297 2.3298E+06 1.0000E+00 40000 #800
301298 8.4650E+05 1.0000E+00 40000 #1000
301299 2.3863E+04 1.0000E+00 40000 #2000
301300 6.2668E+03 1.0000E+00 40000 #2500
301301 1.8255E+03 1.0000E+00 40000 #3000
301302 5.8315E+02 1.0000E+00 40000 #3500
301303 1.9403E+02 1.0000E+00 40000 #4000
301304 6.5838E+01 1.0000E+00 40000 #4500
301305 2.2763E+01 1.0000E+00 40000 #5000
301306 7.8313E+00 1.0000E+00 40000 #5500
301307 2.7040E+00 1.0000E+00 40000 #6000
301308 9.3650E-01 1.0000E+00 40000 #6500
301309 3.3280E-01 1.0000E+00 40000 #7000
311373 1.2446E-01 1.0000E+00 40000 #7500
311374 5.1288E-02 1.0000E+00 40000 #8000
311375 2.3918E-02 1.0000E+00 40000 #8500
################## mc16_13TeV W' ######################
301820 2.3250E+04 1.0000E+00 20000
301821 1.0795E+04 1.0000E+00 20000
301822 4.0723E+03 1.0000E+00 20000
301823 2.2463E+03 1.0000E+00 20000
301824 1.0068E+03 1.0000E+00 20000
301825 3.0493E+02 1.0000E+00 20000
301826 1.0435E+02 1.0000E+00 20000
301827 3.9373E+01 1.0000E+00 20000
301828 1.5998E+01 1.0000E+00 20000
301829 7.1533E+00 1.0000E+00 20000
301830 3.5638E+00 1.0000E+00 20000
301831 1.9955E+00 1.0000E+00 20000
301832 1.2273E+00 1.0000E+00 20000
301833 8.0718E-01 1.0000E+00 20000
################# mc16_13TeV Wstar #################
305604 3.3060E+03 1.0000E+00 20000
305605 1.8970E+03 1.0000E+00 20000
305606 1.1150E+03 1.0000E+00 20000
305607 6.6920E+02 1.0000E+00 20000
305608 4.0760E+02 1.0000E+00 20000
305609 2.5110E+02 1.0000E+00 20000
305610 1.5600E+02 1.0000E+00 20000
305611 9.7410E+01 1.0000E+00 20000
305637 6.1020E+01 1.0000E+00 20000
305638 3.8350E+01 1.0000E+00 20000
305639 2.4120E+01 1.0000E+00 20000
305640 1.5160E+01 1.0000E+00 20000
307505 9.5260E+00 1.0000E+00 20000
307506 5.9770E+00 1.0000E+00 20000
307507 3.7470E+00 1.0000E+00 20000
307508 2.3480E+00 1.0000E+00 20000
307509 1.4680E+00 1.0000E+00 20000
################## high mass Wstar ##############
310751 9.2080E-01 1.0000E+00 20000
310752 5.7820E-01 1.0000E+00 20000
310753 3.6620E-01 1.0000E+00 20000
310754 2.3420E-01 1.0000E+00 20000
310755 1.5210E-01 1.0000E+00 20000
###############  mc16_13TeV DMsA dijet ############
307794 1.1604E+02 1.0000E+00 20000
307798 4.6565E+02 1.0000E+00 20000
307799 1.1181E+02 1.0000E+00 20000
307800 3.2083E+01 1.0000E+00 20000
307801 1.0540E+03 1.0000E+00 20000
307802 2.5414E+02 1.0000E+00 20000
307803 7.3433E+01 1.0000E+00 20000
307804 2.3616E+01 1.0000E+00 20000
307805 8.2250E+00 1.0000E+00 20000
307806 3.0540E+00 1.0000E+00 20000
307807 1.8990E+03 1.0000E+00 20000
307808 4.5869E+02 1.0000E+00 20000
307809 1.3406E+02 1.0000E+00 20000
307810 4.3946E+01 1.0000E+00 20000
307811 1.5686E+01 1.0000E+00 20000
307812 6.0510E+00 1.0000E+00 20000
307813 1.1820E+00 1.0000E+00 20000
307814 3.2383E+02 1.0000E+00 20000
307815 1.1080E+02 1.0000E+00 20000
307816 4.1961E+01 1.0000E+00 20000
307817 1.7550E+01 1.0000E+00 20000
307818 4.2110E+00 1.0000E+00 20000
307819 1.5110E+00 1.0000E+00 20000
307820 4.0692E+01 1.0000E+00 20000
307821 1.1296E+01 1.0000E+00 20000
307822 4.4510E+00 1.0000E+00 20000
307823 2.1830E+00 1.0000E+00 20000
307824 8.1795E+01 1.0000E+00 20000
307825 2.5066E+01 1.0000E+00 20000
307826 1.0406E+01 1.0000E+00 20000
307827 5.2180E+00 1.0000E+00 20000
############### mc16_13TeV DMsA bb ##############
##### gSM = 0.25
307855 1.3120E+03 1.0000E+00 20000
307856 5.7603E+02 1.0000E+00 20000
307857 2.7480E+02 1.0000E+00 20000
307858 1.3900E+02 1.0000E+00 20000
307859 4.0041E+01 1.0000E+00 20000
307860 1.2795E+01 1.0000E+00 20000 
307861 1.5580E+00 1.0000E+00 20000
307862 2.2352E-01 1.0000E+00 20000
############# mc16_13TeV b* ###################
301933 3.8631E+04 1.0000E+00 20000
301934 1.1288E+04 1.0000E+00 20000
301935 3.8580E+03 1.0000E+00 20000
301936 1.4770E+03 1.0000E+00 20000
301937 6.1049E+02 1.0000E+00 20000
301938 1.2358E+02 1.0000E+00 20000
301939 2.8788E+01 1.0000E+00 20000
301940 1.9220E+00 1.0000E+00 20000
301941 1.4634E-01 1.0000E+00 20000
############ mc16_13TeV Graviton to bb ##############
310516 2.2560E+03 1.0000E+00 20000
310517 8.1537E+02 1.0000E+00 20000
310518 3.3144E+02 1.0000E+00 20000
310519 1.4521E+02 1.0000E+00 20000
310520 3.3590E+01 1.0000E+00 20000
310521 9.0630E+00 1.0000E+00 20000
310522 2.6840E+00 1.0000E+00 20000
310523 8.5243E-01 1.0000E+00 20000
310524 2.8191E-01 1.0000E+00 20000
310525 9.6507E-02 1.0000E+00 20000
310526 1.2496E-02 1.0000E+00 20000
310527 1.9450E-03 1.0000E+00 20000 
############ mc16_13TeV Graviton to gg ##############
310528 1.1658E+04 1.0000E+00 20000
310529 4.2020E+03 1.0000E+00 20000
310530 1.7150E+03 1.0000E+00 20000
310531 7.5413E+02 1.0000E+00 20000
310532 1.7474E+02 1.0000E+00 20000
310533 4.7042E+01 1.0000E+00 20000
310534 1.3934E+01 1.0000E+00 20000
310535 4.4200E+00 1.0000E+00 20000
310536 1.4590E+00 1.0000E+00 20000
310537 5.0085E-01 1.0000E+00 20000
310538 6.4733E-02 1.0000E+00 20000
310539 1.0094E-02 1.0000E+00 20000
########## mc16_13TeV SSM Zprime to bb ###############
301922 1.7480E+03 1.0000E+00 20000
301923 6.7005E+02 1.0000E+00 20000
301924 2.9267E+02 1.0000E+00 20000
301925 1.3881E+02 1.0000E+00 20000
301926 7.0855E+01 1.0000E+00 20000
301927 2.0830E+01 1.0000E+00 20000
301928 7.0440E+00 1.0000E+00 20000
301929 1.0530E+00 1.0000E+00 20000
301930 2.2865E-01 1.0000E+00 20000
############# mc16_13TeV SSM Zprime to ttbar #############
301329 51.3 1.0000E+00 200000 
301333 5.08  1.0000E+00 300000
301334 0.721 1.0000E+00 200000
301335 0.141 1.0000E+00 200000
