data15_13TeV.00270806.physics_Main.deriv.DAOD_EXOT2.r9264_p3083_p3704
data15_13TeV.00267639.physics_Main.deriv.DAOD_EXOT2.r9264_p3083_p3704
data15_13TeV.00271516.physics_Main.deriv.DAOD_EXOT2.r9264_p3083_p3704
data15_13TeV.00276147.physics_Main.deriv.DAOD_EXOT2.r9264_p3083_p3704
data15_13TeV.00278968.physics_Main.deriv.DAOD_EXOT2.r9264_p3083_p3704
data15_13TeV.00271388.physics_Main.deriv.DAOD_EXOT2.r9264_p3083_p3704
data15_13TeV.00280853.physics_Main.deriv.DAOD_EXOT2.r9264_p3083_p3704
data15_13TeV.00266904.physics_Main.deriv.DAOD_EXOT2.r9264_p3083_p3704
data15_13TeV.00270953.physics_Main.deriv.DAOD_EXOT2.r9264_p3083_p3704
data15_13TeV.00279932.physics_Main.deriv.DAOD_EXOT2.r9264_p3083_p3704
data15_13TeV.00267638.physics_Main.deriv.DAOD_EXOT2.r9264_p3083_p3704
data15_13TeV.00281075.physics_Main.deriv.DAOD_EXOT2.r9264_p3083_p3704
data15_13TeV.00279284.physics_Main.deriv.DAOD_EXOT2.r9264_p3083_p3704
data15_13TeV.00283608.physics_Main.deriv.DAOD_EXOT2.r9264_p3083_p3704
data15_13TeV.00279867.physics_Main.deriv.DAOD_EXOT2.r9264_p3083_p3704
data15_13TeV.00276161.physics_Main.deriv.DAOD_EXOT2.r9264_p3083_p3704
data15_13TeV.00280673.physics_Main.deriv.DAOD_EXOT2.r9264_p3083_p3704
data15_13TeV.00276189.physics_Main.deriv.DAOD_EXOT2.r9264_p3083_p3704
data15_13TeV.00276778.physics_Main.deriv.DAOD_EXOT2.r9264_p3083_p3704
data15_13TeV.00279813.physics_Main.deriv.DAOD_EXOT2.r9264_p3083_p3704
data15_13TeV.00282784.physics_Main.deriv.DAOD_EXOT2.r9264_p3083_p3704
data15_13TeV.00280520.physics_Main.deriv.DAOD_EXOT2.r9264_p3083_p3704
data15_13TeV.00284427.physics_Main.deriv.DAOD_EXOT2.r9264_p3083_p3704
data15_13TeV.00281143.physics_Main.deriv.DAOD_EXOT2.r9264_p3083_p3704
data15_13TeV.00279515.physics_Main.deriv.DAOD_EXOT2.r9264_p3083_p3704
data15_13TeV.00271744.physics_Main.deriv.DAOD_EXOT2.r9264_p3083_p3704
data15_13TeV.00280423.physics_Main.deriv.DAOD_EXOT2.r9264_p3083_p3704
data15_13TeV.00282631.physics_Main.deriv.DAOD_EXOT2.r9264_p3083_p3704
data15_13TeV.00279764.physics_Main.deriv.DAOD_EXOT2.r9264_p3083_p3704
data15_13TeV.00279984.physics_Main.deriv.DAOD_EXOT2.r9264_p3083_p3704
data15_13TeV.00281317.physics_Main.deriv.DAOD_EXOT2.r9264_p3083_p3704
data15_13TeV.00281411.physics_Main.deriv.DAOD_EXOT2.r9264_p3083_p3704
data15_13TeV.00276181.physics_Main.deriv.DAOD_EXOT2.r9412_p3083_p3704
data15_13TeV.00283780.physics_Main.deriv.DAOD_EXOT2.r9264_p3083_p3704
data15_13TeV.00283429.physics_Main.deriv.DAOD_EXOT2.r9264_p3083_p3704
data15_13TeV.00276183.physics_Main.deriv.DAOD_EXOT2.r9264_p3083_p3704
data15_13TeV.00276954.physics_Main.deriv.DAOD_EXOT2.r9264_p3083_p3704
data15_13TeV.00279928.physics_Main.deriv.DAOD_EXOT2.r9264_p3083_p3704
data15_13TeV.00276790.physics_Main.deriv.DAOD_EXOT2.r9264_p3083_p3704
data15_13TeV.00279345.physics_Main.deriv.DAOD_EXOT2.r9264_p3083_p3704
data15_13TeV.00281385.physics_Main.deriv.DAOD_EXOT2.r9264_p3083_p3704
data15_13TeV.00276511.physics_Main.deriv.DAOD_EXOT2.r9264_p3083_p3704
data15_13TeV.00284006.physics_Main.deriv.DAOD_EXOT2.r9264_p3083_p3704
data15_13TeV.00282992.physics_Main.deriv.DAOD_EXOT2.r9264_p3083_p3704
data15_13TeV.00280753.physics_Main.deriv.DAOD_EXOT2.r9264_p3083_p3704
data15_13TeV.00267167.physics_Main.deriv.DAOD_EXOT2.r9264_p3083_p3704
data15_13TeV.00278727.physics_Main.deriv.DAOD_EXOT2.r9264_p3083_p3704
data15_13TeV.00276952.physics_Main.deriv.DAOD_EXOT2.r9264_p3083_p3704
data15_13TeV.00276689.physics_Main.deriv.DAOD_EXOT2.r9264_p3083_p3704
data15_13TeV.00270588.physics_Main.deriv.DAOD_EXOT2.r9264_p3083_p3704
data15_13TeV.00282625.physics_Main.deriv.DAOD_EXOT2.r9264_p3083_p3704
data15_13TeV.00276262.physics_Main.deriv.DAOD_EXOT2.r9264_p3083_p3704
data15_13TeV.00280500.physics_Main.deriv.DAOD_EXOT2.r9264_p3083_p3704
data15_13TeV.00283074.physics_Main.deriv.DAOD_EXOT2.r9264_p3083_p3704
data15_13TeV.00278880.physics_Main.deriv.DAOD_EXOT2.r9264_p3083_p3704
data15_13TeV.00271595.physics_Main.deriv.DAOD_EXOT2.r9264_p3083_p3704
data15_13TeV.00266919.physics_Main.deriv.DAOD_EXOT2.r9264_p3083_p3704
data15_13TeV.00276176.physics_Main.deriv.DAOD_EXOT2.r9412_p3083_p3704
data15_13TeV.00276330.physics_Main.deriv.DAOD_EXOT2.r9264_p3083_p3704
data15_13TeV.00270441.physics_Main.deriv.DAOD_EXOT2.r9264_p3083_p3704
data15_13TeV.00276336.physics_Main.deriv.DAOD_EXOT2.r9264_p3083_p3704
data15_13TeV.00280273.physics_Main.deriv.DAOD_EXOT2.r9264_p3083_p3704
data15_13TeV.00280614.physics_Main.deriv.DAOD_EXOT2.r9264_p3083_p3704
data15_13TeV.00279685.physics_Main.deriv.DAOD_EXOT2.r9264_p3083_p3704
data15_13TeV.00279169.physics_Main.deriv.DAOD_EXOT2.r9264_p3083_p3704
data15_13TeV.00281070.physics_Main.deriv.DAOD_EXOT2.r9264_p3083_p3704
data15_13TeV.00279259.physics_Main.deriv.DAOD_EXOT2.r9264_p3083_p3704
data15_13TeV.00280464.physics_Main.deriv.DAOD_EXOT2.r9264_p3083_p3704
data15_13TeV.00267073.physics_Main.deriv.DAOD_EXOT2.r9264_p3083_p3704
data15_13TeV.00270816.physics_Main.deriv.DAOD_EXOT2.r9264_p3083_p3704
data15_13TeV.00280977.physics_Main.deriv.DAOD_EXOT2.r9264_p3083_p3704
data15_13TeV.00284213.physics_Main.deriv.DAOD_EXOT2.r9264_p3083_p3704
data15_13TeV.00280231.physics_Main.deriv.DAOD_EXOT2.r9264_p3083_p3704
data15_13TeV.00281074.physics_Main.deriv.DAOD_EXOT2.r9264_p3083_p3704
data15_13TeV.00271421.physics_Main.deriv.DAOD_EXOT2.r9264_p3083_p3704
data15_13TeV.00278970.physics_Main.deriv.DAOD_EXOT2.r9264_p3083_p3704
data15_13TeV.00270949.physics_Main.deriv.DAOD_EXOT2.r9264_p3083_p3704
data15_13TeV.00276416.physics_Main.deriv.DAOD_EXOT2.r9264_p3083_p3704
data15_13TeV.00276329.physics_Main.deriv.DAOD_EXOT2.r9264_p3083_p3704
data15_13TeV.00280368.physics_Main.deriv.DAOD_EXOT2.r9264_p3083_p3704
data15_13TeV.00270448.physics_Main.deriv.DAOD_EXOT2.r9264_p3083_p3704
data15_13TeV.00279279.physics_Main.deriv.DAOD_EXOT2.r9264_p3083_p3704
data15_13TeV.00281381.physics_Main.deriv.DAOD_EXOT2.r9264_p3083_p3704
data15_13TeV.00276731.physics_Main.deriv.DAOD_EXOT2.r9264_p3083_p3704
data15_13TeV.00278912.physics_Main.deriv.DAOD_EXOT2.r9264_p3083_p3704
data15_13TeV.00267152.physics_Main.deriv.DAOD_EXOT2.r9264_p3083_p3704
data15_13TeV.00279598.physics_Main.deriv.DAOD_EXOT2.r9264_p3083_p3704
data15_13TeV.00280862.physics_Main.deriv.DAOD_EXOT2.r9264_p3083_p3704
data15_13TeV.00271298.physics_Main.deriv.DAOD_EXOT2.r9264_p3083_p3704
data15_13TeV.00280319.physics_Main.deriv.DAOD_EXOT2.r9264_p3083_p3704
data15_13TeV.00282712.physics_Main.deriv.DAOD_EXOT2.r9264_p3083_p3704
data15_13TeV.00283270.physics_Main.deriv.DAOD_EXOT2.r9264_p3083_p3704
data15_13TeV.00281130.physics_Main.deriv.DAOD_EXOT2.r9264_p3083_p3704
data15_13TeV.00284420.physics_Main.deriv.DAOD_EXOT2.r9264_p3083_p3704
data15_13TeV.00271048.physics_Main.deriv.DAOD_EXOT2.r9264_p3083_p3704
data15_13TeV.00284285.physics_Main.deriv.DAOD_EXOT2.r9264_p3083_p3704
data15_13TeV.00283155.physics_Main.deriv.DAOD_EXOT2.r9264_p3083_p3704
data15_13TeV.00276073.physics_Main.deriv.DAOD_EXOT2.r9264_p3083_p3704
data15_13TeV.00267162.physics_Main.deriv.DAOD_EXOT2.r9264_p3083_p3704
data15_13TeV.00284484.physics_Main.deriv.DAOD_EXOT2.r9264_p3083_p3704
data15_13TeV.00280950.physics_Main.deriv.DAOD_EXOT2.r9264_p3083_p3704
data15_13TeV.00284154.physics_Main.deriv.DAOD_EXOT2.r9264_p3083_p3704
data15_13TeV.00284473.physics_Main.deriv.DAOD_EXOT2.r9264_p3083_p3704
data15_13TeV.00276245.physics_Main.deriv.DAOD_EXOT2.r9264_p3083_p3704
data15_13TeV.00276212.physics_Main.deriv.DAOD_EXOT2.r9264_p3083_p3704
data15_13TeV.00278748.physics_Main.deriv.DAOD_EXOT2.r9264_p3083_p3704
