data15_13TeV.00267639.periodA_debugrec_hlt.deriv.DAOD_EXOT2.g49_r9264_p3741
data15_13TeV.00271744.periodC_debugrec_hlt.deriv.DAOD_EXOT2.g49_r9264_p3741
data15_13TeV.00284484.periodJ_debugrec_hlt.deriv.DAOD_EXOT2.g49_r9264_p3741
data15_13TeV.00276954.periodD_debugrec_hlt.deriv.DAOD_EXOT2.g49_r9264_p3741
data15_13TeV.00281411.periodH_debugrec_hlt.deriv.DAOD_EXOT2.g49_r9264_p3741
data15_13TeV.00280368.periodF_debugrec_hlt.deriv.DAOD_EXOT2.g49_r9264_p3741
data15_13TeV.00281075.periodG_debugrec_hlt.deriv.DAOD_EXOT2.g49_r9264_p3741
data15_13TeV.00279928.periodE_debugrec_hlt.deriv.DAOD_EXOT2.g49_r9264_p3741
