mc16_13TeV.303468.BlackMaxPythia8EvtGen_A14CTEQ6L1_LM1_n6_MthMD4000.deriv.DAOD_EXOT2.e4184_a875_r10724_p3654
mc16_13TeV.303469.BlackMaxPythia8EvtGen_A14CTEQ6L1_LM1_n6_MthMD5000.deriv.DAOD_EXOT2.e4184_a875_r10724_p3654
mc16_13TeV.303470.BlackMaxPythia8EvtGen_A14CTEQ6L1_LM1_n6_MthMD5500.deriv.DAOD_EXOT2.e4184_a875_r10724_p3654
mc16_13TeV.303471.BlackMaxPythia8EvtGen_A14CTEQ6L1_LM1_n6_MthMD6000.deriv.DAOD_EXOT2.e4184_a875_r10724_p3654
mc16_13TeV.303472.BlackMaxPythia8EvtGen_A14CTEQ6L1_LM1_n6_MthMD6500.deriv.DAOD_EXOT2.e4184_a875_r10724_p3654
mc16_13TeV.303473.BlackMaxPythia8EvtGen_A14CTEQ6L1_LM1_n6_MthMD7000.deriv.DAOD_EXOT2.e4184_a875_r10724_p3654
mc16_13TeV.303474.BlackMaxPythia8EvtGen_A14CTEQ6L1_LM1_n6_MthMD7500.deriv.DAOD_EXOT2.e4184_a875_r10724_p3654
mc16_13TeV.303475.BlackMaxPythia8EvtGen_A14CTEQ6L1_LM1_n6_MthMD8000.deriv.DAOD_EXOT2.e4184_a875_r10724_p3654
mc16_13TeV.303476.BlackMaxPythia8EvtGen_A14CTEQ6L1_LM1_n6_MthMD8500.deriv.DAOD_EXOT2.e4197_a875_r10724_p3654
mc16_13TeV.303477.BlackMaxPythia8EvtGen_A14CTEQ6L1_LM1_n6_MthMD9000.deriv.DAOD_EXOT2.e4197_a875_r10724_p3654
mc16_13TeV.303478.BlackMaxPythia8EvtGen_A14CTEQ6L1_LM1_n6_MthMD9500.deriv.DAOD_EXOT2.e4197_a875_r10724_p3654
mc16_13TeV.303479.BlackMaxPythia8EvtGen_A14CTEQ6L1_LM1_n6_MthMD10000.deriv.DAOD_EXOT2.e4197_a875_r10724_p3654
mc16_13TeV.301295.Pythia8EvtGen_A14NNPDF23LO_ExcitedQ500Lambda500f1.deriv.DAOD_EXOT2.e3855_a875_r10724_p3654
mc16_13TeV.301296.Pythia8EvtGen_A14NNPDF23LO_ExcitedQ600Lambda600f1.deriv.DAOD_EXOT2.e3855_a875_r10724_p3654
mc16_13TeV.301297.Pythia8EvtGen_A14NNPDF23LO_ExcitedQ800Lambda800f1.deriv.DAOD_EXOT2.e3855_a875_r10724_p3654
mc16_13TeV.301298.Pythia8EvtGen_A14NNPDF23LO_ExcitedQ1000Lambda1000f1.deriv.DAOD_EXOT2.e3855_a875_r10724_p3654
mc16_13TeV.301299.Pythia8EvtGen_A14NNPDF23LO_ExcitedQ2000Lambda2000f1.deriv.DAOD_EXOT2.e3840_a875_r10724_p3654
mc16_13TeV.301300.Pythia8EvtGen_A14NNPDF23LO_ExcitedQ2500Lambda2500f1.deriv.DAOD_EXOT2.e3855_a875_r10724_p3654
mc16_13TeV.301301.Pythia8EvtGen_A14NNPDF23LO_ExcitedQ3000Lambda3000f1.deriv.DAOD_EXOT2.e3855_a875_r10724_p3654
mc16_13TeV.301302.Pythia8EvtGen_A14NNPDF23LO_ExcitedQ3500Lambda3500f1.deriv.DAOD_EXOT2.e3855_a875_r10724_p3654
mc16_13TeV.301303.Pythia8EvtGen_A14NNPDF23LO_ExcitedQ4000Lambda4000f1.deriv.DAOD_EXOT2.e3840_a875_r10724_p3654
mc16_13TeV.301304.Pythia8EvtGen_A14NNPDF23LO_ExcitedQ4500Lambda4500f1.deriv.DAOD_EXOT2.e3855_a875_r10724_p3654
mc16_13TeV.301305.Pythia8EvtGen_A14NNPDF23LO_ExcitedQ5000Lambda5000f1.deriv.DAOD_EXOT2.e3855_a875_r10724_p3654
mc16_13TeV.301306.Pythia8EvtGen_A14NNPDF23LO_ExcitedQ5500Lambda5500f1.deriv.DAOD_EXOT2.e3855_a875_r10724_p3654
mc16_13TeV.301307.Pythia8EvtGen_A14NNPDF23LO_ExcitedQ6000Lambda6000f1.deriv.DAOD_EXOT2.e3840_a875_r10724_p3654
mc16_13TeV.301308.Pythia8EvtGen_A14NNPDF23LO_ExcitedQ6500Lambda6500f1.deriv.DAOD_EXOT2.e3855_a875_r10724_p3654
mc16_13TeV.301309.Pythia8EvtGen_A14NNPDF23LO_ExcitedQ7000Lambda7000f1.deriv.DAOD_EXOT2.e3855_a875_r10724_p3654
mc16_13TeV.301820.Pythia8EvtGen_A14NNPDF23LO_Wprime_qq_1000.deriv.DAOD_EXOT2.e4446_a875_r10724_p3654
mc16_13TeV.301821.Pythia8EvtGen_A14NNPDF23LO_Wprime_qq_1200.deriv.DAOD_EXOT2.e4446_a875_r10724_p3654
mc16_13TeV.301822.Pythia8EvtGen_A14NNPDF23LO_Wprime_qq_1500.deriv.DAOD_EXOT2.e4446_a875_r10724_p3654
mc16_13TeV.301823.Pythia8EvtGen_A14NNPDF23LO_Wprime_qq_1700.deriv.DAOD_EXOT2.e4446_a875_r10724_p3654
mc16_13TeV.301824.Pythia8EvtGen_A14NNPDF23LO_Wprime_qq_2000.deriv.DAOD_EXOT2.e4446_a875_r10724_p3654
mc16_13TeV.301825.Pythia8EvtGen_A14NNPDF23LO_Wprime_qq_2500.deriv.DAOD_EXOT2.e4446_a875_r10724_p3654
mc16_13TeV.301826.Pythia8EvtGen_A14NNPDF23LO_Wprime_qq_3000.deriv.DAOD_EXOT2.e4446_a875_r10724_p3654
mc16_13TeV.301827.Pythia8EvtGen_A14NNPDF23LO_Wprime_qq_3500.deriv.DAOD_EXOT2.e4446_a875_r10724_p3654
mc16_13TeV.301828.Pythia8EvtGen_A14NNPDF23LO_Wprime_qq_4000.deriv.DAOD_EXOT2.e4446_a875_r10724_p3654
mc16_13TeV.301829.Pythia8EvtGen_A14NNPDF23LO_Wprime_qq_4500.deriv.DAOD_EXOT2.e4446_a875_r10724_p3654
mc16_13TeV.301830.Pythia8EvtGen_A14NNPDF23LO_Wprime_qq_5000.deriv.DAOD_EXOT2.e4446_a875_r10724_p3654
mc16_13TeV.301831.Pythia8EvtGen_A14NNPDF23LO_Wprime_qq_5500.deriv.DAOD_EXOT2.e4446_a875_r10724_p3654
mc16_13TeV.301832.Pythia8EvtGen_A14NNPDF23LO_Wprime_qq_6000.deriv.DAOD_EXOT2.e4446_a875_r10724_p3654
mc16_13TeV.301833.Pythia8EvtGen_A14NNPDF23LO_Wprime_qq_6500.deriv.DAOD_EXOT2.e4446_a875_r10724_p3654
mc16_13TeV.305604.CalcHepPythia8_A14NNPDF23LO_WstarSinX0_1800.deriv.DAOD_EXOT2.e5150_a875_r10724_p3654
mc16_13TeV.305605.CalcHepPythia8_A14NNPDF23LO_WstarSinX0_2000.deriv.DAOD_EXOT2.e5150_a875_r10724_p3654
mc16_13TeV.305606.CalcHepPythia8_A14NNPDF23LO_WstarSinX0_2200.deriv.DAOD_EXOT2.e5150_a875_r10724_p3654
mc16_13TeV.305607.CalcHepPythia8_A14NNPDF23LO_WstarSinX0_2400.deriv.DAOD_EXOT2.e5150_a875_r10724_p3654
mc16_13TeV.305608.CalcHepPythia8_A14NNPDF23LO_WstarSinX0_2600.deriv.DAOD_EXOT2.e5150_a875_r10724_p3654
mc16_13TeV.305609.CalcHepPythia8_A14NNPDF23LO_WstarSinX0_2800.deriv.DAOD_EXOT2.e5150_a875_r10724_p3654
mc16_13TeV.305610.CalcHepPythia8_A14NNPDF23LO_WstarSinX0_3000.deriv.DAOD_EXOT2.e5150_a875_r10724_p3654
mc16_13TeV.305611.CalcHepPythia8_A14NNPDF23LO_WstarSinX0_3200.deriv.DAOD_EXOT2.e5150_a875_r10724_p3654
mc16_13TeV.305637.CalcHepPythia8_A14NNPDF23LO_WstarSinX0_3400.deriv.DAOD_EXOT2.e5159_a875_r10724_p3654
mc16_13TeV.305638.CalcHepPythia8_A14NNPDF23LO_WstarSinX0_3600.deriv.DAOD_EXOT2.e5159_a875_r10724_p3654
mc16_13TeV.305639.CalcHepPythia8_A14NNPDF23LO_WstarSinX0_3800.deriv.DAOD_EXOT2.e5159_a875_r10724_p3654
mc16_13TeV.305640.CalcHepPythia8EvtGen_A14NNPDF23LO_WstarSinX0_4000.deriv.DAOD_EXOT2.e5621_a875_r10724_p3654
mc16_13TeV.307505.CalcHepPythia8EvtGen_A14NNPDF23LO_WstarSinX0_4200.deriv.DAOD_EXOT2.e5621_a875_r10724_p3654
mc16_13TeV.307506.CalcHepPythia8EvtGen_A14NNPDF23LO_WstarSinX0_4400.deriv.DAOD_EXOT2.e5621_a875_r10724_p3654
mc16_13TeV.307507.CalcHepPythia8EvtGen_A14NNPDF23LO_WstarSinX0_4600.deriv.DAOD_EXOT2.e5621_a875_r10724_p3654
mc16_13TeV.307508.CalcHepPythia8EvtGen_A14NNPDF23LO_WstarSinX0_4800.deriv.DAOD_EXOT2.e5621_a875_r10724_p3654
mc16_13TeV.307509.CalcHepPythia8EvtGen_A14NNPDF23LO_WstarSinX0_5000.deriv.DAOD_EXOT2.e5621_a875_r10724_p3654
mc16_13TeV.307794.MGPy8EG_N30LO_A14N23LO_DMsA_dijet_mR1p5_gSM0p05.deriv.DAOD_EXOT2.e5687_a875_r10724_p3654
mc16_13TeV.307798.MGPy8EG_N30LO_A14N23LO_DMsA_dijet_mR1p5_gSM0p1.deriv.DAOD_EXOT2.e5687_a875_r10724_p3654
mc16_13TeV.307799.MGPy8EG_N30LO_A14N23LO_DMsA_dijet_mR2p0_gSM0p1.deriv.DAOD_EXOT2.e5687_a875_r10724_p3654
mc16_13TeV.307800.MGPy8EG_N30LO_A14N23LO_DMsA_dijet_mR2p5_gSM0p1.deriv.DAOD_EXOT2.e5687_a875_r10724_p3654
mc16_13TeV.307801.MGPy8EG_N30LO_A14N23LO_DMsA_dijet_mR1p5_gSM0p15.deriv.DAOD_EXOT2.e5687_a875_r10724_p3654
mc16_13TeV.307802.MGPy8EG_N30LO_A14N23LO_DMsA_dijet_mR2p0_gSM0p15.deriv.DAOD_EXOT2.e5687_a875_r10724_p3654
mc16_13TeV.307803.MGPy8EG_N30LO_A14N23LO_DMsA_dijet_mR2p5_gSM0p15.deriv.DAOD_EXOT2.e5687_a875_r10724_p3654
mc16_13TeV.307804.MGPy8EG_N30LO_A14N23LO_DMsA_dijet_mR3p0_gSM0p15.deriv.DAOD_EXOT2.e5687_a875_r10724_p3654
mc16_13TeV.307805.MGPy8EG_N30LO_A14N23LO_DMsA_dijet_mR3p5_gSM0p15.deriv.DAOD_EXOT2.e5687_a875_r10724_p3654
mc16_13TeV.307806.MGPy8EG_N30LO_A14N23LO_DMsA_dijet_mR4p0_gSM0p15.deriv.DAOD_EXOT2.e5687_a875_r10724_p3654
mc16_13TeV.307807.MGPy8EG_N30LO_A14N23LO_DMsA_dijet_mR1p5_gSM0p2.deriv.DAOD_EXOT2.e5687_a875_r10724_p3654
mc16_13TeV.307808.MGPy8EG_N30LO_A14N23LO_DMsA_dijet_mR2p0_gSM0p2.deriv.DAOD_EXOT2.e5687_a875_r10724_p3654
mc16_13TeV.307809.MGPy8EG_N30LO_A14N23LO_DMsA_dijet_mR2p5_gSM0p2.deriv.DAOD_EXOT2.e5687_a875_r10724_p3654
mc16_13TeV.307810.MGPy8EG_N30LO_A14N23LO_DMsA_dijet_mR3p0_gSM0p2.deriv.DAOD_EXOT2.e5687_a875_r10724_p3654
mc16_13TeV.307811.MGPy8EG_N30LO_A14N23LO_DMsA_dijet_mR3p5_gSM0p2.deriv.DAOD_EXOT2.e5687_a875_r10724_p3654
mc16_13TeV.307812.MGPy8EG_N30LO_A14N23LO_DMsA_dijet_mR4p0_gSM0p2.deriv.DAOD_EXOT2.e5687_a875_r10724_p3654
mc16_13TeV.307813.MGPy8EG_N30LO_A14N23LO_DMsA_dijet_mR5p0_gSM0p2.deriv.DAOD_EXOT2.e5687_a875_r10724_p3654
mc16_13TeV.307814.MGPy8EG_N30LO_A14N23LO_DMsA_dijet_mR2p5_gSM0p3.deriv.DAOD_EXOT2.e5687_a875_r10724_p3654
mc16_13TeV.307815.MGPy8EG_N30LO_A14N23LO_DMsA_dijet_mR3p0_gSM0p3.deriv.DAOD_EXOT2.e5687_a875_r10724_p3654
mc16_13TeV.307816.MGPy8EG_N30LO_A14N23LO_DMsA_dijet_mR3p5_gSM0p3.deriv.DAOD_EXOT2.e5687_a875_r10724_p3654
mc16_13TeV.307817.MGPy8EG_N30LO_A14N23LO_DMsA_dijet_mR4p0_gSM0p3.deriv.DAOD_EXOT2.e5687_a875_r10724_p3654
mc16_13TeV.307818.MGPy8EG_N30LO_A14N23LO_DMsA_dijet_mR5p0_gSM0p3.deriv.DAOD_EXOT2.e5687_a875_r10724_p3654
mc16_13TeV.307819.MGPy8EG_N30LO_A14N23LO_DMsA_dijet_mR6p0_gSM0p3.deriv.DAOD_EXOT2.e5687_a875_r10724_p3654
mc16_13TeV.307820.MGPy8EG_N30LO_A14N23LO_DMsA_dijet_mR4p0_gSM0p4.deriv.DAOD_EXOT2.e5687_a875_r10724_p3654
mc16_13TeV.307821.MGPy8EG_N30LO_A14N23LO_DMsA_dijet_mR5p0_gSM0p4.deriv.DAOD_EXOT2.e5687_a875_r10724_p3654
mc16_13TeV.307822.MGPy8EG_N30LO_A14N23LO_DMsA_dijet_mR6p0_gSM0p4.deriv.DAOD_EXOT2.e5687_a875_r10724_p3654
mc16_13TeV.307823.MGPy8EG_N30LO_A14N23LO_DMsA_dijet_mR7p0_gSM0p4.deriv.DAOD_EXOT2.e5687_a875_r10724_p3654
mc16_13TeV.307824.MGPy8EG_N30LO_A14N23LO_DMsA_dijet_mR4p0_gSM0p5.deriv.DAOD_EXOT2.e5687_a875_r10724_p3654
mc16_13TeV.307825.MGPy8EG_N30LO_A14N23LO_DMsA_dijet_mR5p0_gSM0p5.deriv.DAOD_EXOT2.e5687_a875_r10724_p3654
mc16_13TeV.307826.MGPy8EG_N30LO_A14N23LO_DMsA_dijet_mR6p0_gSM0p5.deriv.DAOD_EXOT2.e5687_a875_r10724_p3654
mc16_13TeV.307827.MGPy8EG_N30LO_A14N23LO_DMsA_dijet_mR7p0_gSM0p5.deriv.DAOD_EXOT2.e5687_a875_r10724_p3654
