mc16_13TeV.307847.MGPy8EG_N30LO_A14N23LO_DMsA_bb_mR1p25_gSM0p2.deriv.DAOD_EXOT2.e5645_a875_r10201_p3705
mc16_13TeV.307848.MGPy8EG_N30LO_A14N23LO_DMsA_bb_mR1p5_gSM0p2.deriv.DAOD_EXOT2.e5645_a875_r10201_p3705
mc16_13TeV.307849.MGPy8EG_N30LO_A14N23LO_DMsA_bb_mR1p75_gSM0p2.deriv.DAOD_EXOT2.e5645_a875_r10201_p3705
mc16_13TeV.307850.MGPy8EG_N30LO_A14N23LO_DMsA_bb_mR2p0_gSM0p2.deriv.DAOD_EXOT2.e5645_a875_r10201_p3705
mc16_13TeV.307851.MGPy8EG_N30LO_A14N23LO_DMsA_bb_mR2p5_gSM0p2.deriv.DAOD_EXOT2.e5645_a875_r10201_p3705
mc16_13TeV.307852.MGPy8EG_N30LO_A14N23LO_DMsA_bb_mR3p0_gSM0p2.deriv.DAOD_EXOT2.e5645_a875_r10201_p3705
mc16_13TeV.307853.MGPy8EG_N30LO_A14N23LO_DMsA_bb_mR4p0_gSM0p2.deriv.DAOD_EXOT2.e5645_a875_r10201_p3705
mc16_13TeV.307854.MGPy8EG_N30LO_A14N23LO_DMsA_bb_mR5p0_gSM0p2.deriv.DAOD_EXOT2.e5645_a875_r10201_p3705
