mc16_13TeV.307855.MGPy8EG_N30LO_A14N23LO_DMsA_bb_mR1p25_gSM0p25.deriv.DAOD_EXOT2.e5645_a875_r10724_p3705
mc16_13TeV.307856.MGPy8EG_N30LO_A14N23LO_DMsA_bb_mR1p5_gSM0p25.deriv.DAOD_EXOT2.e5645_a875_r10724_p3705
mc16_13TeV.307857.MGPy8EG_N30LO_A14N23LO_DMsA_bb_mR1p75_gSM0p25.deriv.DAOD_EXOT2.e5645_a875_r10724_p3705
mc16_13TeV.307858.MGPy8EG_N30LO_A14N23LO_DMsA_bb_mR2p0_gSM0p25.deriv.DAOD_EXOT2.e5645_a875_r10724_p3705
mc16_13TeV.307859.MGPy8EG_N30LO_A14N23LO_DMsA_bb_mR2p5_gSM0p25.deriv.DAOD_EXOT2.e5645_a875_r10724_p3705
mc16_13TeV.307860.MGPy8EG_N30LO_A14N23LO_DMsA_bb_mR3p0_gSM0p25.deriv.DAOD_EXOT2.e5645_a875_r10724_p3705
mc16_13TeV.307861.MGPy8EG_N30LO_A14N23LO_DMsA_bb_mR4p0_gSM0p25.deriv.DAOD_EXOT2.e5645_a875_r10724_p3705
mc16_13TeV.307862.MGPy8EG_N30LO_A14N23LO_DMsA_bb_mR5p0_gSM0p25.deriv.DAOD_EXOT2.e5645_a875_r10724_p3705
