mc16_13TeV.310516.Pythia8EvtGen_A14NNPDF23LO_Gbb_02_1250.deriv.DAOD_EXOT2.e6974_a875_r10201_p3705
mc16_13TeV.310517.Pythia8EvtGen_A14NNPDF23LO_Gbb_02_1500.deriv.DAOD_EXOT2.e6974_a875_r10201_p3705
mc16_13TeV.310518.Pythia8EvtGen_A14NNPDF23LO_Gbb_02_1750.deriv.DAOD_EXOT2.e6974_a875_r10201_p3705
mc16_13TeV.310519.Pythia8EvtGen_A14NNPDF23LO_Gbb_02_2000.deriv.DAOD_EXOT2.e6974_a875_r10201_p3705
mc16_13TeV.310520.Pythia8EvtGen_A14NNPDF23LO_Gbb_02_2500.deriv.DAOD_EXOT2.e6974_a875_r10201_p3705
mc16_13TeV.310521.Pythia8EvtGen_A14NNPDF23LO_Gbb_02_3000.deriv.DAOD_EXOT2.e6974_a875_r10201_p3705
mc16_13TeV.310522.Pythia8EvtGen_A14NNPDF23LO_Gbb_02_3500.deriv.DAOD_EXOT2.e6974_a875_r10201_p3705
mc16_13TeV.310523.Pythia8EvtGen_A14NNPDF23LO_Gbb_02_4000.deriv.DAOD_EXOT2.e6974_a875_r10201_p3705
mc16_13TeV.310524.Pythia8EvtGen_A14NNPDF23LO_Gbb_02_4500.deriv.DAOD_EXOT2.e6974_a875_r10201_p3705
mc16_13TeV.310525.Pythia8EvtGen_A14NNPDF23LO_Gbb_02_5000.deriv.DAOD_EXOT2.e6974_a875_r10201_p3705
