mc16_13TeV.311373.Pythia8EvtGen_A14NNPDF23LO_ExcitedQ7500Lambda7500f1.deriv.DAOD_EXOT2.e7294_a875_r9364_p3705
mc16_13TeV.311374.Pythia8EvtGen_A14NNPDF23LO_ExcitedQ8000Lambda8000f1.deriv.DAOD_EXOT2.e7294_a875_r9364_p3705
mc16_13TeV.311375.Pythia8EvtGen_A14NNPDF23LO_ExcitedQ8500Lambda8500f1.deriv.DAOD_EXOT2.e7294_a875_r9364_p3705
