mc16_13TeV.301922.Pythia8EvtGen_A14NNPDF23LO_Zprimebb1000.deriv.DAOD_EXOT2.e3889_a875_r10201_p3705
mc16_13TeV.301923.Pythia8EvtGen_A14NNPDF23LO_Zprimebb1250.deriv.DAOD_EXOT2.e3889_a875_r10201_p3705
mc16_13TeV.301924.Pythia8EvtGen_A14NNPDF23LO_Zprimebb1500.deriv.DAOD_EXOT2.e3889_a875_r10201_p3705
mc16_13TeV.301925.Pythia8EvtGen_A14NNPDF23LO_Zprimebb1750.deriv.DAOD_EXOT2.e3889_a875_r10201_p3705
mc16_13TeV.301926.Pythia8EvtGen_A14NNPDF23LO_Zprimebb2000.deriv.DAOD_EXOT2.e3889_a875_r10201_p3705
mc16_13TeV.301927.Pythia8EvtGen_A14NNPDF23LO_Zprimebb2500.deriv.DAOD_EXOT2.e3889_a875_r10201_p3705
mc16_13TeV.301928.Pythia8EvtGen_A14NNPDF23LO_Zprimebb3000.deriv.DAOD_EXOT2.e3889_a875_r10201_p3705
mc16_13TeV.301929.Pythia8EvtGen_A14NNPDF23LO_Zprimebb4000.deriv.DAOD_EXOT2.e3889_a875_r10201_p3705
mc16_13TeV.301930.Pythia8EvtGen_A14NNPDF23LO_Zprimebb5000.deriv.DAOD_EXOT2.e3889_a875_r10201_p3705
