mc16_13TeV.310751.CalcHepPythia8EvtGen_A14NNPDF23LO_WstarSinX0_5200.deriv.DAOD_EXOT2.e6978_a875_r9364_p3705
mc16_13TeV.310752.CalcHepPythia8EvtGen_A14NNPDF23LO_WstarSinX0_5400.deriv.DAOD_EXOT2.e6978_a875_r9364_p3705
mc16_13TeV.310753.CalcHepPythia8EvtGen_A14NNPDF23LO_WstarSinX0_5600.deriv.DAOD_EXOT2.e6978_a875_r9364_p3705
mc16_13TeV.310754.CalcHepPythia8EvtGen_A14NNPDF23LO_WstarSinX0_5800.deriv.DAOD_EXOT2.e6978_a875_r9364_p3705
mc16_13TeV.310755.CalcHepPythia8EvtGen_A14NNPDF23LO_WstarSinX0_6000.deriv.DAOD_EXOT2.e6978_a875_r9364_p3705
